module devices-service

go 1.14

require (
	github.com/BurntSushi/toml v0.3.1
	github.com/go-ozzo/ozzo-validation v3.6.0+incompatible
	github.com/go-ozzo/ozzo-validation/v4 v4.2.1 // indirect
	github.com/gorilla/handlers v1.4.2
	github.com/gorilla/mux v1.7.4
	github.com/lib/pq v1.5.2
	github.com/sirupsen/logrus v1.6.0
	github.com/stretchr/testify v1.5.1
)
